%!PS-Adobe-3.0 EPSF-3.0
%%Title: final_graphs/delay_score_transfering.eps
%%Creator: matplotlib version 3.3.4, http://matplotlib.org/
%%CreationDate: Mon May 17 23:44:55 2021
%%Orientation: portrait
%%BoundingBox: 90.0 252.0 522.0 540.0
%%EndComments
%%BeginProlog
/mpldict 8 dict def
mpldict begin
/m { moveto } bind def
/l { lineto } bind def
/r { rlineto } bind def
/c { curveto } bind def
/cl { closepath } bind def
/box {
      m
      1 index 0 r
      0 exch r
      neg 0 r
      cl
    } bind def
/clipbox {
      box
      clip
      newpath
    } bind def
%!PS-Adobe-3.0 Resource-Font
%%Title: DejaVu Sans
%%Copyright: Copyright (c) 2003 by Bitstream, Inc. All Rights Reserved. Copyright (c) 2006 by Tavmjong Bah. All Rights Reserved. DejaVu changes are in public domain 
%%Creator: Converted from TrueType to type 3 by PPR
25 dict begin
/_d{bind def}bind def
/_m{moveto}_d
/_l{lineto}_d
/_cl{closepath eofill}_d
/_c{curveto}_d
/_sc{7 -1 roll{setcachedevice}{pop pop pop pop pop pop}ifelse}_d
/_e{exec}_d
/FontName /DejaVuSans def
/PaintType 0 def
/FontMatrix[.001 0 0 .001 0 0]def
/FontBBox[-1021 -463 1793 1232]def
/FontType 3 def
/Encoding [ /space /quotedbl /zero /one /two /three /five /seven /A /D /F /O /bracketleft /bracketright /a /b /c /d /e /f /g /h /i /k /l /m /n /o /p /r /s /t /u /v /y /minus ] def
/FontInfo 10 dict dup begin
/FamilyName (DejaVu Sans) def
/FullName (DejaVu Sans) def
/Notice (Copyright (c) 2003 by Bitstream, Inc. All Rights Reserved. Copyright (c) 2006 by Tavmjong Bah. All Rights Reserved. DejaVu changes are in public domain ) def
/Weight (Book) def
/Version (Version 2.35) def
/ItalicAngle 0.0 def
/isFixedPitch false def
/UnderlinePosition -130 def
/UnderlineThickness 90 def
end readonly def
/CharStrings 37 dict dup begin
/.notdef 0 def
/space{318 0 0 0 0 0 _sc
}_d
/quotedbl{460 0 96 458 364 729 _sc
179 729 _m
179 458 _l
96 458 _l
96 729 _l
179 729 _l
364 729 _m
364 458 _l
281 458 _l
281 729 _l
364 729 _l
_cl}_d
/zero{636 0 66 -13 570 742 _sc
318 664 _m
267 664 229 639 203 589 _c
177 539 165 464 165 364 _c
165 264 177 189 203 139 _c
229 89 267 64 318 64 _c
369 64 407 89 433 139 _c
458 189 471 264 471 364 _c
471 464 458 539 433 589 _c
407 639 369 664 318 664 _c
318 742 _m
399 742 461 709 505 645 _c
548 580 570 486 570 364 _c
570 241 548 147 505 83 _c
461 19 399 -13 318 -13 _c
236 -13 173 19 130 83 _c
87 147 66 241 66 364 _c
66 486 87 580 130 645 _c
173 709 236 742 318 742 _c
_cl}_d
/one{636 0 110 0 544 729 _sc
124 83 _m
285 83 _l
285 639 _l
110 604 _l
110 694 _l
284 729 _l
383 729 _l
383 83 _l
544 83 _l
544 0 _l
124 0 _l
124 83 _l
_cl}_d
/two{{636 0 73 0 536 742 _sc
192 83 _m
536 83 _l
536 0 _l
73 0 _l
73 83 _l
110 121 161 173 226 239 _c
290 304 331 346 348 365 _c
380 400 402 430 414 455 _c
426 479 433 504 433 528 _c
433 566 419 598 392 622 _c
365 646 330 659 286 659 _c
255 659 222 653 188 643 _c
154 632 117 616 78 594 _c
78 694 _l
118 710 155 722 189 730 _c
223 738 255 742 284 742 _c
}_e{359 742 419 723 464 685 _c
509 647 532 597 532 534 _c
532 504 526 475 515 449 _c
504 422 484 390 454 354 _c
446 344 420 317 376 272 _c
332 227 271 164 192 83 _c
_cl}_e}_d
/three{{636 0 76 -13 556 742 _sc
406 393 _m
453 383 490 362 516 330 _c
542 298 556 258 556 212 _c
556 140 531 84 482 45 _c
432 6 362 -13 271 -13 _c
240 -13 208 -10 176 -4 _c
144 1 110 10 76 22 _c
76 117 _l
103 101 133 89 166 81 _c
198 73 232 69 268 69 _c
330 69 377 81 409 105 _c
441 129 458 165 458 212 _c
458 254 443 288 413 312 _c
383 336 341 349 287 349 _c
}_e{202 349 _l
202 430 _l
291 430 _l
339 430 376 439 402 459 _c
428 478 441 506 441 543 _c
441 580 427 609 401 629 _c
374 649 336 659 287 659 _c
260 659 231 656 200 650 _c
169 644 135 635 98 623 _c
98 711 _l
135 721 170 729 203 734 _c
235 739 266 742 296 742 _c
370 742 429 725 473 691 _c
517 657 539 611 539 553 _c
539 513 527 479 504 451 _c
481 423 448 403 406 393 _c
_cl}_e}_d
/five{{636 0 77 -13 549 729 _sc
108 729 _m
495 729 _l
495 646 _l
198 646 _l
198 467 _l
212 472 227 476 241 478 _c
255 480 270 482 284 482 _c
365 482 429 459 477 415 _c
525 370 549 310 549 234 _c
549 155 524 94 475 51 _c
426 8 357 -13 269 -13 _c
238 -13 207 -10 175 -6 _c
143 -1 111 6 77 17 _c
77 116 _l
106 100 136 88 168 80 _c
199 72 232 69 267 69 _c
}_e{323 69 368 83 401 113 _c
433 143 450 183 450 234 _c
450 284 433 324 401 354 _c
368 384 323 399 267 399 _c
241 399 214 396 188 390 _c
162 384 135 375 108 363 _c
108 729 _l
_cl}_e}_d
/seven{636 0 82 0 551 729 _sc
82 729 _m
551 729 _l
551 687 _l
286 0 _l
183 0 _l
432 646 _l
82 646 _l
82 729 _l
_cl}_d
/A{684 0 8 0 676 729 _sc
342 632 _m
208 269 _l
476 269 _l
342 632 _l
286 729 _m
398 729 _l
676 0 _l
573 0 _l
507 187 _l
178 187 _l
112 0 _l
8 0 _l
286 729 _l
_cl}_d
/D{770 0 98 0 711 729 _sc
197 648 _m
197 81 _l
316 81 _l
416 81 490 103 537 149 _c
583 195 607 267 607 365 _c
607 463 583 534 537 580 _c
490 625 416 648 316 648 _c
197 648 _l
98 729 _m
301 729 _l
442 729 546 699 612 641 _c
678 582 711 490 711 365 _c
711 239 677 147 611 88 _c
545 29 441 0 301 0 _c
98 0 _l
98 729 _l
_cl}_d
/F{575 0 98 0 517 729 _sc
98 729 _m
517 729 _l
517 646 _l
197 646 _l
197 431 _l
486 431 _l
486 348 _l
197 348 _l
197 0 _l
98 0 _l
98 729 _l
_cl}_d
/O{787 0 56 -13 731 742 _sc
394 662 _m
322 662 265 635 223 582 _c
181 528 160 456 160 364 _c
160 272 181 199 223 146 _c
265 92 322 66 394 66 _c
465 66 522 92 564 146 _c
606 199 627 272 627 364 _c
627 456 606 528 564 582 _c
522 635 465 662 394 662 _c
394 742 _m
496 742 577 707 639 639 _c
700 571 731 479 731 364 _c
731 248 700 157 639 89 _c
577 21 496 -13 394 -13 _c
291 -13 209 21 148 89 _c
86 157 56 248 56 364 _c
56 479 86 571 148 639 _c
209 707 291 742 394 742 _c
_cl}_d
/bracketleft{390 0 86 -131 293 760 _sc
86 760 _m
293 760 _l
293 690 _l
176 690 _l
176 -61 _l
293 -61 _l
293 -131 _l
86 -131 _l
86 760 _l
_cl}_d
/bracketright{390 0 97 -131 304 760 _sc
304 760 _m
304 -131 _l
97 -131 _l
97 -61 _l
214 -61 _l
214 690 _l
97 690 _l
97 760 _l
304 760 _l
_cl}_d
/a{{613 0 60 -13 522 560 _sc
343 275 _m
270 275 220 266 192 250 _c
164 233 150 205 150 165 _c
150 133 160 107 181 89 _c
202 70 231 61 267 61 _c
317 61 357 78 387 114 _c
417 149 432 196 432 255 _c
432 275 _l
343 275 _l
522 312 _m
522 0 _l
432 0 _l
432 83 _l
411 49 385 25 355 10 _c
325 -5 287 -13 243 -13 _c
187 -13 142 2 109 33 _c
76 64 60 106 60 159 _c
}_e{60 220 80 266 122 298 _c
163 329 224 345 306 345 _c
432 345 _l
432 354 _l
432 395 418 427 391 450 _c
364 472 326 484 277 484 _c
245 484 215 480 185 472 _c
155 464 127 453 100 439 _c
100 522 _l
132 534 164 544 195 550 _c
226 556 256 560 286 560 _c
365 560 424 539 463 498 _c
502 457 522 395 522 312 _c
_cl}_e}_d
/b{{635 0 91 -13 580 760 _sc
487 273 _m
487 339 473 390 446 428 _c
418 466 381 485 334 485 _c
286 485 249 466 222 428 _c
194 390 181 339 181 273 _c
181 207 194 155 222 117 _c
249 79 286 61 334 61 _c
381 61 418 79 446 117 _c
473 155 487 207 487 273 _c
181 464 _m
199 496 223 520 252 536 _c
281 552 316 560 356 560 _c
422 560 476 533 518 481 _c
559 428 580 359 580 273 _c
}_e{580 187 559 117 518 65 _c
476 13 422 -13 356 -13 _c
316 -13 281 -5 252 10 _c
223 25 199 49 181 82 _c
181 0 _l
91 0 _l
91 760 _l
181 760 _l
181 464 _l
_cl}_e}_d
/c{{550 0 55 -13 488 560 _sc
488 526 _m
488 442 _l
462 456 437 466 411 473 _c
385 480 360 484 334 484 _c
276 484 230 465 198 428 _c
166 391 150 339 150 273 _c
150 206 166 154 198 117 _c
230 80 276 62 334 62 _c
360 62 385 65 411 72 _c
437 79 462 90 488 104 _c
488 21 _l
462 9 436 0 410 -5 _c
383 -10 354 -13 324 -13 _c
242 -13 176 12 128 64 _c
}_e{79 115 55 185 55 273 _c
55 362 79 432 128 483 _c
177 534 244 560 330 560 _c
358 560 385 557 411 551 _c
437 545 463 537 488 526 _c
_cl}_e}_d
/d{{635 0 55 -13 544 760 _sc
454 464 _m
454 760 _l
544 760 _l
544 0 _l
454 0 _l
454 82 _l
435 49 411 25 382 10 _c
353 -5 319 -13 279 -13 _c
213 -13 159 13 117 65 _c
75 117 55 187 55 273 _c
55 359 75 428 117 481 _c
159 533 213 560 279 560 _c
319 560 353 552 382 536 _c
411 520 435 496 454 464 _c
148 273 _m
148 207 161 155 188 117 _c
215 79 253 61 301 61 _c
}_e{348 61 385 79 413 117 _c
440 155 454 207 454 273 _c
454 339 440 390 413 428 _c
385 466 348 485 301 485 _c
253 485 215 466 188 428 _c
161 390 148 339 148 273 _c
_cl}_e}_d
/e{{615 0 55 -13 562 560 _sc
562 296 _m
562 252 _l
149 252 _l
153 190 171 142 205 110 _c
238 78 284 62 344 62 _c
378 62 412 66 444 74 _c
476 82 509 95 541 113 _c
541 28 _l
509 14 476 3 442 -3 _c
408 -9 373 -13 339 -13 _c
251 -13 182 12 131 62 _c
80 112 55 181 55 268 _c
55 357 79 428 127 481 _c
175 533 241 560 323 560 _c
397 560 455 536 498 489 _c
}_e{540 441 562 377 562 296 _c
472 322 _m
471 371 457 410 431 440 _c
404 469 368 484 324 484 _c
274 484 234 469 204 441 _c
174 413 156 373 152 322 _c
472 322 _l
_cl}_e}_d
/f{352 0 23 0 371 760 _sc
371 760 _m
371 685 _l
285 685 _l
253 685 230 678 218 665 _c
205 652 199 629 199 595 _c
199 547 _l
347 547 _l
347 477 _l
199 477 _l
199 0 _l
109 0 _l
109 477 _l
23 477 _l
23 547 _l
109 547 _l
109 585 _l
109 645 123 690 151 718 _c
179 746 224 760 286 760 _c
371 760 _l
_cl}_d
/g{{635 0 55 -207 544 560 _sc
454 280 _m
454 344 440 395 414 431 _c
387 467 349 485 301 485 _c
253 485 215 467 188 431 _c
161 395 148 344 148 280 _c
148 215 161 165 188 129 _c
215 93 253 75 301 75 _c
349 75 387 93 414 129 _c
440 165 454 215 454 280 _c
544 68 _m
544 -24 523 -93 482 -139 _c
440 -184 377 -207 292 -207 _c
260 -207 231 -204 203 -200 _c
175 -195 147 -188 121 -178 _c
}_e{121 -91 _l
147 -105 173 -115 199 -122 _c
225 -129 251 -133 278 -133 _c
336 -133 380 -117 410 -87 _c
439 -56 454 -10 454 52 _c
454 96 _l
435 64 411 40 382 24 _c
353 8 319 0 279 0 _c
211 0 157 25 116 76 _c
75 127 55 195 55 280 _c
55 364 75 432 116 483 _c
157 534 211 560 279 560 _c
319 560 353 552 382 536 _c
411 520 435 496 454 464 _c
454 547 _l
544 547 _l
}_e{544 68 _l
_cl}_e}_d
/h{634 0 91 0 549 760 _sc
549 330 _m
549 0 _l
459 0 _l
459 327 _l
459 379 448 417 428 443 _c
408 469 378 482 338 482 _c
289 482 251 466 223 435 _c
195 404 181 362 181 309 _c
181 0 _l
91 0 _l
91 760 _l
181 760 _l
181 462 _l
202 494 227 519 257 535 _c
286 551 320 560 358 560 _c
420 560 468 540 500 501 _c
532 462 549 405 549 330 _c
_cl}_d
/i{278 0 94 0 184 760 _sc
94 547 _m
184 547 _l
184 0 _l
94 0 _l
94 547 _l
94 760 _m
184 760 _l
184 646 _l
94 646 _l
94 760 _l
_cl}_d
/k{579 0 91 0 576 760 _sc
91 760 _m
181 760 _l
181 311 _l
449 547 _l
564 547 _l
274 291 _l
576 0 _l
459 0 _l
181 267 _l
181 0 _l
91 0 _l
91 760 _l
_cl}_d
/l{278 0 94 0 184 760 _sc
94 760 _m
184 760 _l
184 0 _l
94 0 _l
94 760 _l
_cl}_d
/m{{974 0 91 0 889 560 _sc
520 442 _m
542 482 569 511 600 531 _c
631 550 668 560 711 560 _c
767 560 811 540 842 500 _c
873 460 889 403 889 330 _c
889 0 _l
799 0 _l
799 327 _l
799 379 789 418 771 444 _c
752 469 724 482 686 482 _c
639 482 602 466 575 435 _c
548 404 535 362 535 309 _c
535 0 _l
445 0 _l
445 327 _l
445 379 435 418 417 444 _c
398 469 369 482 331 482 _c
}_e{285 482 248 466 221 435 _c
194 404 181 362 181 309 _c
181 0 _l
91 0 _l
91 547 _l
181 547 _l
181 462 _l
201 495 226 520 255 536 _c
283 552 317 560 357 560 _c
397 560 430 550 458 530 _c
486 510 506 480 520 442 _c
_cl}_e}_d
/n{634 0 91 0 549 560 _sc
549 330 _m
549 0 _l
459 0 _l
459 327 _l
459 379 448 417 428 443 _c
408 469 378 482 338 482 _c
289 482 251 466 223 435 _c
195 404 181 362 181 309 _c
181 0 _l
91 0 _l
91 547 _l
181 547 _l
181 462 _l
202 494 227 519 257 535 _c
286 551 320 560 358 560 _c
420 560 468 540 500 501 _c
532 462 549 405 549 330 _c
_cl}_d
/o{612 0 55 -13 557 560 _sc
306 484 _m
258 484 220 465 192 427 _c
164 389 150 338 150 273 _c
150 207 163 156 191 118 _c
219 80 257 62 306 62 _c
354 62 392 80 420 118 _c
448 156 462 207 462 273 _c
462 337 448 389 420 427 _c
392 465 354 484 306 484 _c
306 560 _m
384 560 445 534 490 484 _c
534 433 557 363 557 273 _c
557 183 534 113 490 63 _c
445 12 384 -13 306 -13 _c
227 -13 165 12 121 63 _c
77 113 55 183 55 273 _c
55 363 77 433 121 484 _c
165 534 227 560 306 560 _c
_cl}_d
/p{{635 0 91 -207 580 560 _sc
181 82 _m
181 -207 _l
91 -207 _l
91 547 _l
181 547 _l
181 464 _l
199 496 223 520 252 536 _c
281 552 316 560 356 560 _c
422 560 476 533 518 481 _c
559 428 580 359 580 273 _c
580 187 559 117 518 65 _c
476 13 422 -13 356 -13 _c
316 -13 281 -5 252 10 _c
223 25 199 49 181 82 _c
487 273 _m
487 339 473 390 446 428 _c
418 466 381 485 334 485 _c
}_e{286 485 249 466 222 428 _c
194 390 181 339 181 273 _c
181 207 194 155 222 117 _c
249 79 286 61 334 61 _c
381 61 418 79 446 117 _c
473 155 487 207 487 273 _c
_cl}_e}_d
/r{411 0 91 0 411 560 _sc
411 463 _m
401 469 390 473 378 476 _c
366 478 353 480 339 480 _c
288 480 249 463 222 430 _c
194 397 181 350 181 288 _c
181 0 _l
91 0 _l
91 547 _l
181 547 _l
181 462 _l
199 495 224 520 254 536 _c
284 552 321 560 365 560 _c
371 560 378 559 386 559 _c
393 558 401 557 411 555 _c
411 463 _l
_cl}_d
/s{{521 0 54 -13 472 560 _sc
443 531 _m
443 446 _l
417 458 391 468 364 475 _c
336 481 308 485 279 485 _c
234 485 200 478 178 464 _c
156 450 145 430 145 403 _c
145 382 153 366 169 354 _c
185 342 217 330 265 320 _c
296 313 _l
360 299 405 279 432 255 _c
458 230 472 195 472 151 _c
472 100 452 60 412 31 _c
372 1 316 -13 246 -13 _c
216 -13 186 -10 154 -5 _c
}_e{122 0 89 8 54 20 _c
54 113 _l
87 95 120 82 152 74 _c
184 65 216 61 248 61 _c
290 61 323 68 346 82 _c
368 96 380 117 380 144 _c
380 168 371 187 355 200 _c
339 213 303 226 247 238 _c
216 245 _l
160 257 119 275 95 299 _c
70 323 58 356 58 399 _c
58 450 76 490 112 518 _c
148 546 200 560 268 560 _c
301 560 332 557 362 552 _c
391 547 418 540 443 531 _c
}_e{_cl}_e}_d
/t{392 0 27 0 368 702 _sc
183 702 _m
183 547 _l
368 547 _l
368 477 _l
183 477 _l
183 180 _l
183 135 189 106 201 94 _c
213 81 238 75 276 75 _c
368 75 _l
368 0 _l
276 0 _l
206 0 158 13 132 39 _c
106 65 93 112 93 180 _c
93 477 _l
27 477 _l
27 547 _l
93 547 _l
93 702 _l
183 702 _l
_cl}_d
/u{634 0 85 -13 543 560 _sc
85 216 _m
85 547 _l
175 547 _l
175 219 _l
175 167 185 129 205 103 _c
225 77 255 64 296 64 _c
344 64 383 79 411 110 _c
439 141 453 183 453 237 _c
453 547 _l
543 547 _l
543 0 _l
453 0 _l
453 84 _l
431 50 405 26 377 10 _c
348 -5 315 -13 277 -13 _c
214 -13 166 6 134 45 _c
101 83 85 140 85 216 _c
311 560 _m
311 560 _l
_cl}_d
/v{592 0 30 0 562 547 _sc
30 547 _m
125 547 _l
296 88 _l
467 547 _l
562 547 _l
357 0 _l
235 0 _l
30 547 _l
_cl}_d
/y{592 0 30 -207 562 547 _sc
322 -50 _m
296 -114 271 -157 247 -177 _c
223 -197 191 -207 151 -207 _c
79 -207 _l
79 -132 _l
132 -132 _l
156 -132 175 -126 189 -114 _c
203 -102 218 -75 235 -31 _c
251 9 _l
30 547 _l
125 547 _l
296 119 _l
467 547 _l
562 547 _l
322 -50 _l
_cl}_d
/minus{838 0 106 272 732 355 _sc
106 355 _m
732 355 _l
732 272 _l
106 272 _l
106 355 _l
_cl}_d
end readonly def

/BuildGlyph
 {exch begin
 CharStrings exch
 2 copy known not{pop /.notdef}if
 true 3 1 roll get exec
 end}_d

/BuildChar {
 1 index /Encoding get exch get
 1 index /BuildGlyph get exec
}_d

FontName currentdict end definefont pop
end
%%EndProlog
mpldict begin
90 252 translate
432 288 0 0 clipbox
gsave
0 0 m
432 0 l
432 288 l
0 288 l
cl
grestore
gsave
54 36 m
388.8 36 l
388.8 253.44 l
54 253.44 l
cl
1.000 setgray
fill
grestore
0.800 setlinewidth
1 setlinejoin
0 setlinecap
[] 0 setdash
0.000 setgray
gsave
/o {
gsave
newpath
translate
0.8 setlinewidth
1 setlinejoin
0 setlinecap
0 0 m
0 -3.5 l

gsave
0.000 setgray
fill
grestore
stroke
grestore
} bind def
69.2182 36 o
grestore
/DejaVuSans findfont
10.000 scalefont
setfont
gsave
66.038494 21.406250 translate
0.000000 rotate
0.000000 0 m /zero glyphshow
grestore
gsave
/o {
gsave
newpath
translate
0.8 setlinewidth
1 setlinejoin
0 setlinecap
0 0 m
0 -3.5 l

gsave
0.000 setgray
fill
grestore
stroke
grestore
} bind def
107.264 36 o
grestore
gsave
100.904261 21.406250 translate
0.000000 rotate
0.000000 0 m /two glyphshow
6.362305 0 m /five glyphshow
grestore
gsave
/o {
gsave
newpath
translate
0.8 setlinewidth
1 setlinejoin
0 setlinecap
0 0 m
0 -3.5 l

gsave
0.000 setgray
fill
grestore
stroke
grestore
} bind def
145.309 36 o
grestore
gsave
138.949716 21.406250 translate
0.000000 rotate
0.000000 0 m /five glyphshow
6.362305 0 m /zero glyphshow
grestore
gsave
/o {
gsave
newpath
translate
0.8 setlinewidth
1 setlinejoin
0 setlinecap
0 0 m
0 -3.5 l

gsave
0.000 setgray
fill
grestore
stroke
grestore
} bind def
183.355 36 o
grestore
gsave
176.995170 21.406250 translate
0.000000 rotate
0.000000 0 m /seven glyphshow
6.362305 0 m /five glyphshow
grestore
gsave
/o {
gsave
newpath
translate
0.8 setlinewidth
1 setlinejoin
0 setlinecap
0 0 m
0 -3.5 l

gsave
0.000 setgray
fill
grestore
stroke
grestore
} bind def
221.4 36 o
grestore
gsave
211.860938 21.406250 translate
0.000000 rotate
0.000000 0 m /one glyphshow
6.362305 0 m /zero glyphshow
12.724609 0 m /zero glyphshow
grestore
gsave
/o {
gsave
newpath
translate
0.8 setlinewidth
1 setlinejoin
0 setlinecap
0 0 m
0 -3.5 l

gsave
0.000 setgray
fill
grestore
stroke
grestore
} bind def
259.445 36 o
grestore
gsave
249.906392 21.406250 translate
0.000000 rotate
0.000000 0 m /one glyphshow
6.362305 0 m /two glyphshow
12.724609 0 m /five glyphshow
grestore
gsave
/o {
gsave
newpath
translate
0.8 setlinewidth
1 setlinejoin
0 setlinecap
0 0 m
0 -3.5 l

gsave
0.000 setgray
fill
grestore
stroke
grestore
} bind def
297.491 36 o
grestore
gsave
287.951847 21.406250 translate
0.000000 rotate
0.000000 0 m /one glyphshow
6.362305 0 m /five glyphshow
12.724609 0 m /zero glyphshow
grestore
gsave
/o {
gsave
newpath
translate
0.8 setlinewidth
1 setlinejoin
0 setlinecap
0 0 m
0 -3.5 l

gsave
0.000 setgray
fill
grestore
stroke
grestore
} bind def
335.536 36 o
grestore
gsave
325.997301 21.406250 translate
0.000000 rotate
0.000000 0 m /one glyphshow
6.362305 0 m /seven glyphshow
12.724609 0 m /five glyphshow
grestore
gsave
/o {
gsave
newpath
translate
0.8 setlinewidth
1 setlinejoin
0 setlinecap
0 0 m
0 -3.5 l

gsave
0.000 setgray
fill
grestore
stroke
grestore
} bind def
373.582 36 o
grestore
gsave
364.042756 21.406250 translate
0.000000 rotate
0.000000 0 m /two glyphshow
6.362305 0 m /zero glyphshow
12.724609 0 m /zero glyphshow
grestore
gsave
165.454688 7.734375 translate
0.000000 rotate
0.000000 0 m /A glyphshow
6.715820 0 m /d glyphshow
13.063477 0 m /d glyphshow
19.411133 0 m /i glyphshow
22.189453 0 m /t glyphshow
26.110352 0 m /i glyphshow
28.888672 0 m /o glyphshow
35.006836 0 m /n glyphshow
41.344727 0 m /a glyphshow
47.472656 0 m /l glyphshow
50.250977 0 m /space glyphshow
53.429688 0 m /l glyphshow
56.208008 0 m /e glyphshow
62.360352 0 m /n glyphshow
68.698242 0 m /g glyphshow
75.045898 0 m /t glyphshow
78.966797 0 m /h glyphshow
85.304688 0 m /space glyphshow
88.483398 0 m /bracketleft glyphshow
92.384766 0 m /k glyphshow
98.175781 0 m /m glyphshow
107.916992 0 m /bracketright glyphshow
grestore
gsave
/o {
gsave
newpath
translate
0.8 setlinewidth
1 setlinejoin
0 setlinecap
-0 0 m
-3.5 0 l

gsave
0.000 setgray
fill
grestore
stroke
grestore
} bind def
54 39.5071 o
grestore
gsave
25.906250 35.710222 translate
0.000000 rotate
0.000000 0 m /minus glyphshow
8.378906 0 m /two glyphshow
14.741211 0 m /five glyphshow
grestore
gsave
/o {
gsave
newpath
translate
0.8 setlinewidth
1 setlinejoin
0 setlinecap
-0 0 m
-3.5 0 l

gsave
0.000 setgray
fill
grestore
stroke
grestore
} bind def
54 57.0426 o
grestore
gsave
25.906250 53.245706 translate
0.000000 rotate
0.000000 0 m /minus glyphshow
8.378906 0 m /two glyphshow
14.741211 0 m /zero glyphshow
grestore
gsave
/o {
gsave
newpath
translate
0.8 setlinewidth
1 setlinejoin
0 setlinecap
-0 0 m
-3.5 0 l

gsave
0.000 setgray
fill
grestore
stroke
grestore
} bind def
54 74.5781 o
grestore
gsave
25.906250 70.781190 translate
0.000000 rotate
0.000000 0 m /minus glyphshow
8.378906 0 m /one glyphshow
14.741211 0 m /five glyphshow
grestore
gsave
/o {
gsave
newpath
translate
0.8 setlinewidth
1 setlinejoin
0 setlinecap
-0 0 m
-3.5 0 l

gsave
0.000 setgray
fill
grestore
stroke
grestore
} bind def
54 92.1135 o
grestore
gsave
25.906250 88.316673 translate
0.000000 rotate
0.000000 0 m /minus glyphshow
8.378906 0 m /one glyphshow
14.741211 0 m /zero glyphshow
grestore
gsave
/o {
gsave
newpath
translate
0.8 setlinewidth
1 setlinejoin
0 setlinecap
-0 0 m
-3.5 0 l

gsave
0.000 setgray
fill
grestore
stroke
grestore
} bind def
54 109.649 o
grestore
gsave
32.265625 105.852157 translate
0.000000 rotate
0.000000 0 m /minus glyphshow
8.378906 0 m /five glyphshow
grestore
gsave
/o {
gsave
newpath
translate
0.8 setlinewidth
1 setlinejoin
0 setlinecap
-0 0 m
-3.5 0 l

gsave
0.000 setgray
fill
grestore
stroke
grestore
} bind def
54 127.185 o
grestore
gsave
40.640625 123.387641 translate
0.000000 rotate
0.000000 0 m /zero glyphshow
grestore
gsave
/o {
gsave
newpath
translate
0.8 setlinewidth
1 setlinejoin
0 setlinecap
-0 0 m
-3.5 0 l

gsave
0.000 setgray
fill
grestore
stroke
grestore
} bind def
54 144.72 o
grestore
gsave
40.640625 140.923125 translate
0.000000 rotate
0.000000 0 m /five glyphshow
grestore
gsave
/o {
gsave
newpath
translate
0.8 setlinewidth
1 setlinejoin
0 setlinecap
-0 0 m
-3.5 0 l

gsave
0.000 setgray
fill
grestore
stroke
grestore
} bind def
54 162.255 o
grestore
gsave
34.281250 158.458609 translate
0.000000 rotate
0.000000 0 m /one glyphshow
6.362305 0 m /zero glyphshow
grestore
gsave
/o {
gsave
newpath
translate
0.8 setlinewidth
1 setlinejoin
0 setlinecap
-0 0 m
-3.5 0 l

gsave
0.000 setgray
fill
grestore
stroke
grestore
} bind def
54 179.791 o
grestore
gsave
34.281250 175.994093 translate
0.000000 rotate
0.000000 0 m /one glyphshow
6.362305 0 m /five glyphshow
grestore
gsave
/o {
gsave
newpath
translate
0.8 setlinewidth
1 setlinejoin
0 setlinecap
-0 0 m
-3.5 0 l

gsave
0.000 setgray
fill
grestore
stroke
grestore
} bind def
54 197.326 o
grestore
gsave
34.281250 193.529577 translate
0.000000 rotate
0.000000 0 m /two glyphshow
6.362305 0 m /zero glyphshow
grestore
gsave
/o {
gsave
newpath
translate
0.8 setlinewidth
1 setlinejoin
0 setlinecap
-0 0 m
-3.5 0 l

gsave
0.000 setgray
fill
grestore
stroke
grestore
} bind def
54 214.862 o
grestore
gsave
34.281250 211.065060 translate
0.000000 rotate
0.000000 0 m /two glyphshow
6.362305 0 m /five glyphshow
grestore
gsave
/o {
gsave
newpath
translate
0.8 setlinewidth
1 setlinejoin
0 setlinecap
-0 0 m
-3.5 0 l

gsave
0.000 setgray
fill
grestore
stroke
grestore
} bind def
54 232.397 o
grestore
gsave
34.281250 228.600544 translate
0.000000 rotate
0.000000 0 m /three glyphshow
6.362305 0 m /zero glyphshow
grestore
gsave
/o {
gsave
newpath
translate
0.8 setlinewidth
1 setlinejoin
0 setlinecap
-0 0 m
-3.5 0 l

gsave
0.000 setgray
fill
grestore
stroke
grestore
} bind def
54 249.933 o
grestore
gsave
34.281250 246.136028 translate
0.000000 rotate
0.000000 0 m /three glyphshow
6.362305 0 m /five glyphshow
grestore
gsave
19.828125 74.235625 translate
90.000000 rotate
0.000000 0 m /D glyphshow
7.700195 0 m /e glyphshow
13.852539 0 m /l glyphshow
16.630859 0 m /a glyphshow
22.758789 0 m /y glyphshow
28.676758 0 m /space glyphshow
31.855469 0 m /s glyphshow
37.065430 0 m /c glyphshow
42.563477 0 m /o glyphshow
48.681641 0 m /r glyphshow
52.542969 0 m /e glyphshow
58.695312 0 m /space glyphshow
61.874023 0 m /p glyphshow
68.221680 0 m /o glyphshow
74.339844 0 m /i glyphshow
77.118164 0 m /n glyphshow
83.456055 0 m /t glyphshow
87.376953 0 m /s glyphshow
92.586914 0 m /space glyphshow
95.765625 0 m /o glyphshow
101.883789 0 m /u glyphshow
108.221680 0 m /t glyphshow
112.142578 0 m /space glyphshow
115.321289 0 m /o glyphshow
121.439453 0 m /f glyphshow
124.959961 0 m /space glyphshow
128.138672 0 m /three glyphshow
134.500977 0 m /zero glyphshow
grestore
1.500 setlinewidth
2 setlinecap
0.000 0.000 1.000 setrgbcolor
gsave
334.8 217.4 54 36 clipbox
69.218182 232.397419 m
70.74 232.31061 l
72.261818 232.053586 l
73.783636 231.631306 l
75.305455 231.048536 l
76.827273 230.309862 l
78.349091 229.419696 l
79.870909 228.382285 l
82.914545 225.881941 l
85.958182 222.839791 l
89.001818 219.284602 l
92.045455 215.243142 l
95.089091 210.740347 l
98.132727 205.79948 l
101.176364 200.442261 l
104.22 194.689001 l
107.263636 188.55871 l
110.307273 182.0692 l
114.872727 171.697667 l
119.438182 160.607412 l
124.003636 148.845996 l
128.569091 136.456876 l
133.134545 123.479836 l
137.7 109.951368 l
143.787273 91.113202 l
149.874545 71.426262 l
152.918182 61.285036 l
154.44 57.042581 l
373.581818 57.042581 l
373.581818 57.042581 l
stroke
grestore
0.000 0.500 0.000 setrgbcolor
gsave
334.8 217.4 54 36 clipbox
69.218182 232.397419 m
70.74 232.222933 l
72.261818 231.702877 l
73.783636 230.842209 l
75.305455 229.645697 l
76.827273 228.117926 l
78.349091 226.263309 l
79.870909 224.086092 l
81.392727 221.590366 l
82.914545 218.78007 l
84.436364 215.659003 l
85.958182 212.230823 l
87.48 208.49906 l
90.523636 200.138282 l
93.567273 190.602501 l
96.610909 179.915797 l
99.654545 168.100645 l
102.698182 155.178048 l
105.741818 141.16765 l
108.785455 126.087853 l
111.829091 109.955903 l
114.872727 92.78799 l
117.916364 74.59932 l
119.438182 65.126702 l
120.96 57.042581 l
373.581818 57.042581 l
373.581818 57.042581 l
stroke
grestore
1.000 0.000 0.000 setrgbcolor
gsave
334.8 217.4 54 36 clipbox
69.218182 232.397419 m
70.74 232.135255 l
72.261818 231.352167 l
73.783636 230.053112 l
75.305455 228.242859 l
76.827273 225.925991 l
78.349091 223.106921 l
79.870909 219.789898 l
81.392727 215.979011 l
82.914545 211.678199 l
84.436364 206.891261 l
85.958182 201.621855 l
87.48 195.873512 l
89.001818 189.649634 l
92.045455 175.788303 l
95.089091 160.062799 l
98.132727 142.496383 l
101.176364 123.110777 l
104.22 101.926291 l
107.263636 78.961935 l
108.785455 66.817917 l
110.307273 57.042581 l
373.581818 57.042581 l
373.581818 57.042581 l
stroke
grestore
0.800 setlinewidth
0 setlinejoin
0.000 setgray
gsave
54 36 m
54 253.44 l
stroke
grestore
gsave
388.8 36 m
388.8 253.44 l
stroke
grestore
gsave
54 36 m
388.8 36 l
stroke
grestore
gsave
54 253.44 m
388.8 253.44 l
stroke
grestore
/DejaVuSans findfont
12.000 scalefont
setfont
gsave
57.946875 259.440000 translate
0.000000 rotate
0.000000 0 m /D glyphshow
9.240234 0 m /e glyphshow
16.623047 0 m /l glyphshow
19.957031 0 m /a glyphshow
27.310547 0 m /y glyphshow
34.412109 0 m /space glyphshow
38.226562 0 m /s glyphshow
44.478516 0 m /c glyphshow
51.076172 0 m /o glyphshow
58.417969 0 m /r glyphshow
63.101562 0 m /e glyphshow
70.484375 0 m /s glyphshow
76.736328 0 m /space glyphshow
80.550781 0 m /c glyphshow
87.148438 0 m /o glyphshow
94.490234 0 m /m glyphshow
106.179688 0 m /p glyphshow
113.796875 0 m /a glyphshow
121.150391 0 m /r glyphshow
126.083984 0 m /i glyphshow
129.417969 0 m /s glyphshow
135.669922 0 m /o glyphshow
143.011719 0 m /n glyphshow
150.617188 0 m /space glyphshow
154.431641 0 m /b glyphshow
162.048828 0 m /a glyphshow
169.402344 0 m /s glyphshow
175.654297 0 m /e glyphshow
183.037109 0 m /d glyphshow
190.654297 0 m /space glyphshow
194.468750 0 m /o glyphshow
201.810547 0 m /n glyphshow
209.416016 0 m /space glyphshow
213.230469 0 m /d glyphshow
220.847656 0 m /e glyphshow
228.230469 0 m /l glyphshow
231.564453 0 m /a glyphshow
238.917969 0 m /y glyphshow
246.019531 0 m /space glyphshow
249.833984 0 m /quotedbl glyphshow
255.353516 0 m /t glyphshow
260.058594 0 m /r glyphshow
264.992188 0 m /a glyphshow
272.345703 0 m /n glyphshow
279.951172 0 m /s glyphshow
286.203125 0 m /f glyphshow
290.427734 0 m /e glyphshow
297.810547 0 m /r glyphshow
302.744141 0 m /i glyphshow
306.078125 0 m /n glyphshow
313.683594 0 m /g glyphshow
321.300781 0 m /quotedbl glyphshow
grestore
1.000 setlinewidth
0 setlinecap
0.800 setgray
gsave
184.815625 201.424375 m
381.8 201.424375 l
383.133333 201.424375 383.8 202.091042 383.8 203.424375 c
383.8 246.44 l
383.8 247.773333 383.133333 248.44 381.8 248.44 c
184.815625 248.44 l
183.482292 248.44 182.815625 247.773333 182.815625 246.44 c
182.815625 203.424375 l
182.815625 202.091042 183.482292 201.424375 184.815625 201.424375 c
cl
gsave
1.000 setgray
fill
grestore
stroke
grestore
1.500 setlinewidth
1 setlinejoin
2 setlinecap
0.000 0.000 1.000 setrgbcolor
gsave
186.815625 240.34625 m
206.815625 240.34625 l
stroke
grestore
0.000 setgray
/DejaVuSans findfont
10.000 scalefont
setfont
gsave
214.815625 236.846250 translate
0.000000 rotate
0.000000 0 m /O glyphshow
7.871094 0 m /n glyphshow
14.208984 0 m /l glyphshow
16.987305 0 m /y glyphshow
22.905273 0 m /space glyphshow
26.083984 0 m /f glyphshow
29.604492 0 m /i glyphshow
32.382812 0 m /r glyphshow
36.494141 0 m /s glyphshow
41.704102 0 m /t glyphshow
45.625000 0 m /space glyphshow
48.803711 0 m /a glyphshow
54.931641 0 m /c glyphshow
60.429688 0 m /t glyphshow
64.350586 0 m /i glyphshow
67.128906 0 m /v glyphshow
73.046875 0 m /i glyphshow
75.825195 0 m /t glyphshow
79.746094 0 m /y glyphshow
85.664062 0 m /space glyphshow
88.842773 0 m /d glyphshow
95.190430 0 m /e glyphshow
101.342773 0 m /l glyphshow
104.121094 0 m /a glyphshow
110.249023 0 m /y glyphshow
116.166992 0 m /e glyphshow
122.319336 0 m /d glyphshow
grestore
0.000 0.500 0.000 setrgbcolor
gsave
186.815625 225.674375 m
206.815625 225.674375 l
stroke
grestore
0.000 setgray
gsave
214.815625 222.174375 translate
0.000000 rotate
0.000000 0 m /F glyphshow
5.001953 0 m /i glyphshow
7.780273 0 m /r glyphshow
11.891602 0 m /s glyphshow
17.101562 0 m /t glyphshow
21.022461 0 m /space glyphshow
24.201172 0 m /a glyphshow
30.329102 0 m /n glyphshow
36.666992 0 m /d glyphshow
43.014648 0 m /space glyphshow
46.193359 0 m /s glyphshow
51.403320 0 m /e glyphshow
57.555664 0 m /c glyphshow
63.053711 0 m /o glyphshow
69.171875 0 m /n glyphshow
75.509766 0 m /d glyphshow
81.857422 0 m /space glyphshow
85.036133 0 m /a glyphshow
91.164062 0 m /c glyphshow
96.662109 0 m /t glyphshow
100.583008 0 m /i glyphshow
103.361328 0 m /v glyphshow
109.279297 0 m /i glyphshow
112.057617 0 m /t glyphshow
115.978516 0 m /y glyphshow
121.896484 0 m /space glyphshow
125.075195 0 m /d glyphshow
131.422852 0 m /e glyphshow
137.575195 0 m /l glyphshow
140.353516 0 m /a glyphshow
146.481445 0 m /y glyphshow
152.399414 0 m /e glyphshow
158.551758 0 m /d glyphshow
grestore
1.000 0.000 0.000 setrgbcolor
gsave
186.815625 211.0025 m
206.815625 211.0025 l
stroke
grestore
0.000 setgray
gsave
214.815625 207.502500 translate
0.000000 rotate
0.000000 0 m /A glyphshow
6.840820 0 m /l glyphshow
9.619141 0 m /l glyphshow
12.397461 0 m /space glyphshow
15.576172 0 m /a glyphshow
21.704102 0 m /c glyphshow
27.202148 0 m /t glyphshow
31.123047 0 m /i glyphshow
33.901367 0 m /v glyphshow
39.819336 0 m /i glyphshow
42.597656 0 m /t glyphshow
46.518555 0 m /i glyphshow
49.296875 0 m /e glyphshow
55.449219 0 m /s glyphshow
60.659180 0 m /space glyphshow
63.837891 0 m /d glyphshow
70.185547 0 m /e glyphshow
76.337891 0 m /l glyphshow
79.116211 0 m /a glyphshow
85.244141 0 m /y glyphshow
91.162109 0 m /e glyphshow
97.314453 0 m /d glyphshow
grestore

end
showpage
